module broker

go 1.18

require (
	github.com/go-chi/chi/v5 v5.0.7
	github.com/go-chi/cors v1.2.1
)

require github.com/rabbitmq/amqp091-go v1.4.0

require (
	github.com/golang/protobuf v1.5.2 // indirect
	golang.org/x/net v0.0.0-20210405180319-a5a99cb37ef4 // indirect
	golang.org/x/sys v0.0.0-20210510120138-977fb7262007 // indirect
	golang.org/x/text v0.3.3 // indirect
	google.golang.org/genproto v0.0.0-20200526211855-cb27e3aa2013 // indirect
	google.golang.org/grpc v1.48.0 // indirect
	google.golang.org/protobuf v1.27.1 // indirect
)
